…
sel <- df_stations$Innsjø == "Kråkstadelva"
df_stations$LATITUDE[sel] <- 59.7550576
df_stations$LONGITUDE[sel] <- 10.0105251


df_stations
```

```
## # A tibble: 32 x 5
##    Løpenr Innsjø           Fylke    LATITUDE LONGITUDE
##     <dbl> <chr>            <chr>       <dbl>     <dbl>
##  1      1 Borrevannet      Vestfold     59.4     10.4 
##  2      2 Rødenessjøen     Østfold      59.6     11.6 
##  3      3 Stomperudtjernet Østfold      59.3     11.4 
##  4      4 Flesjøvannet     Østfold      59.4     11.0 
##  5      5 Vansjø           Østfold      59.4     10.9 
##  6      6 Bjørnrødvann     Østfold      59.4     10.8 
##  7      7 Akersvannet      Vestfold     59.2     10.3 
##  8      8 Bergsvannet      Vestfold     59.5     10.1 
##  9      9 Korssjøen        Vestfold     59.5     10.2 
## 10     10 Hallevannet      Vestfold     59.0      9.91
## # ... with 22 more rows
```
…
